[
"Pre IND/RWE/Drug Stand",
"Public Health/COVID/Other",
"Intern-Improv/Bus Proc Improv/Gen",
"Intern-Improv/Inform Govern/Gen",
"Intern-Improv/Data Stand/Multi",
"Inter-Improv/Data Coll Anal Model/Multi",
"KM/KM/Multi",
"G&A/GA/Gen",
"G&A/HR/Gen",
"G&A/B&F/Gen",
"G&A/Super&Team/Gen"
]